<?xml version="1.0" encoding="UTF-8"?>
<CustomTab xmlns="http://soap.sforce.com/2006/04/metadata">
    <flexiPage>Salesforce1_Links</flexiPage>
    <label>Salesforce1 Links</label>
    <mobileReady>false</mobileReady>
    <motif>Custom9: Lightning</motif>
</CustomTab>
